EESchema Schematic File Version 3
LIBS:power
LIBS:device
LIBS:linear
LIBS:regul
LIBS:adc-dac
LIBS:memory
LIBS:xilinx
LIBS:microcontrollers
LIBS:dsp
LIBS:microchip
LIBS:analog_switches
LIBS:motorola
LIBS:texas
LIBS:intel
LIBS:audio
LIBS:interface
LIBS:digital-audio
LIBS:philips
LIBS:cypress
LIBS:siliconi
LIBS:opto
LIBS:atmel
LIBS:contrib
LIBS:micboost-cache
EELAYER 26 0
EELAYER END
$Descr A4 11693 8268
encoding utf-8
Sheet 1 1
Title ""
Date ""
Rev ""
Comp ""
Comment1 ""
Comment2 ""
Comment3 ""
Comment4 ""
$EndDescr
$Comp
L R R3
U 1 1 560EE992
P 3500 2200
F 0 "R3" V 3600 2200 50  0000 C CNN
F 1 "220k/390K" V 3400 2050 50  0000 C CNN
F 2 "Capacitors_SMD:C_1206_HandSoldering" V 3430 2200 30  0001 C CNN
F 3 "" H 3500 2200 30  0000 C CNN
	1    3500 2200
	0    1    1    0   
$EndComp
$Comp
L R R4
U 1 1 560EEA15
P 3650 1950
F 0 "R4" H 3750 2000 50  0000 C CNN
F 1 "2.2k" V 3650 1950 50  0000 C CNN
F 2 "Capacitors_SMD:C_1206_HandSoldering" V 3580 1950 30  0001 C CNN
F 3 "" H 3650 1950 30  0000 C CNN
	1    3650 1950
	1    0    0    -1  
$EndComp
$Comp
L R R1
U 1 1 560EEA8C
P 2550 2050
F 0 "R1" H 2650 2050 50  0000 C CNN
F 1 "4.7k" V 2550 2050 50  0000 C CNN
F 2 "Capacitors_SMD:C_1206_HandSoldering" V 2480 2050 30  0001 C CNN
F 3 "" H 2550 2050 30  0000 C CNN
	1    2550 2050
	1    0    0    -1  
$EndComp
$Comp
L R R5
U 1 1 560EEAFD
P 3650 3000
F 0 "R5" H 3700 3150 50  0000 C CNN
F 1 "51ohm" H 3800 2850 50  0000 C CNN
F 2 "Capacitors_SMD:C_1206_HandSoldering" V 3580 3000 30  0001 C CNN
F 3 "" H 3650 3000 30  0000 C CNN
	1    3650 3000
	1    0    0    -1  
$EndComp
$Comp
L R R6
U 1 1 560EED46
P 4450 1800
F 0 "R6" V 4530 1800 50  0000 C CNN
F 1 "150/220 ohm" V 4350 1750 50  0000 C CNN
F 2 "Capacitors_SMD:C_1206_HandSoldering" V 4380 1800 30  0001 C CNN
F 3 "" H 4450 1800 30  0000 C CNN
	1    4450 1800
	0    1    1    0   
$EndComp
$Comp
L R R8
U 1 1 560EED9A
P 5150 2100
F 0 "R8" V 5050 2100 50  0000 C CNN
F 1 "1.5k" V 5150 2100 50  0000 C CNN
F 2 "Capacitors_SMD:C_1206_HandSoldering" V 5080 2100 30  0001 C CNN
F 3 "" H 5150 2100 30  0000 C CNN
	1    5150 2100
	0    1    1    0   
$EndComp
$Comp
L C C8
U 1 1 560EEEC5
P 4900 2500
F 0 "C8" H 4925 2600 50  0000 L CNN
F 1 "100nF" H 4925 2400 50  0000 L CNN
F 2 "Capacitors_SMD:C_1206_HandSoldering" H 4938 2350 30  0001 C CNN
F 3 "" H 4900 2500 60  0000 C CNN
	1    4900 2500
	1    0    0    -1  
$EndComp
$Comp
L C C7
U 1 1 560EEFB0
P 4650 2500
F 0 "C7" H 4675 2600 50  0000 L CNN
F 1 "100nF" H 4675 2400 50  0000 L CNN
F 2 "Capacitors_SMD:C_1206_HandSoldering" H 4688 2350 30  0001 C CNN
F 3 "" H 4650 2500 60  0000 C CNN
	1    4650 2500
	1    0    0    -1  
$EndComp
$Comp
L CP C4
U 1 1 560EF49B
P 3450 3000
F 0 "C4" H 3450 3150 50  0000 L CNN
F 1 "10uF" H 3450 3250 50  0000 L CNN
F 2 "Capacitors_SMD:C_1206_HandSoldering" H 3488 2850 30  0001 C CNN
F 3 "" H 3450 3000 60  0000 C CNN
	1    3450 3000
	1    0    0    -1  
$EndComp
$Comp
L CP C6
U 1 1 560EF520
P 4250 2500
F 0 "C6" H 4275 2600 50  0000 L CNN
F 1 "330uF" H 4275 2400 50  0000 L CNN
F 2 "Capacitors_THT:CP_Radial_D8.0mm_P3.50mm" H 4288 2350 30  0001 C CNN
F 3 "" H 4250 2500 60  0000 C CNN
	1    4250 2500
	1    0    0    -1  
$EndComp
$Comp
L CP C9
U 1 1 560EF987
P 5150 2500
F 0 "C9" H 5175 2600 50  0000 L CNN
F 1 "10uF" H 5175 2400 50  0000 L CNN
F 2 "Capacitors_SMD:C_1206_HandSoldering" H 5188 2350 30  0001 C CNN
F 3 "" H 5150 2500 60  0000 C CNN
	1    5150 2500
	1    0    0    -1  
$EndComp
$Comp
L CONN_01X03 P2
U 1 1 560F0F57
P 6000 2750
F 0 "P2" H 6000 2950 50  0000 C CNN
F 1 "CONN_01X03" V 6100 2750 50  0000 C CNN
F 2 "Pin_Headers:Pin_Header_Straight_1x03_Pitch2.54mm" H 6000 2750 60  0001 C CNN
F 3 "" H 6000 2750 60  0000 C CNN
	1    6000 2750
	1    0    0    -1  
$EndComp
$Comp
L CONN_01X02 P1
U 1 1 560F1464
P 2350 2850
F 0 "P1" H 2350 2700 50  0000 C CNN
F 1 "MIC" V 2450 2850 50  0000 C CNN
F 2 "Pin_Headers:Pin_Header_Straight_1x02_Pitch2.54mm" H 2350 2850 60  0001 C CNN
F 3 "" H 2350 2850 60  0000 C CNN
	1    2350 2850
	-1   0    0    1   
$EndComp
$Comp
L C C1
U 1 1 560F1981
P 2650 3000
F 0 "C1" H 2675 3100 50  0000 L CNN
F 1 "2.2nF" H 2675 2900 50  0000 L CNN
F 2 "Capacitors_SMD:C_1206_HandSoldering" H 2688 2850 30  0001 C CNN
F 3 "" H 2650 3000 60  0000 C CNN
	1    2650 3000
	1    0    0    -1  
$EndComp
$Comp
L R R2
U 1 1 560F96FD
P 3000 3000
F 0 "R2" H 3050 3150 50  0000 C CNN
F 1 "100k" V 3000 3000 50  0000 C CNN
F 2 "Capacitors_SMD:C_1206_HandSoldering" V 2930 3000 30  0001 C CNN
F 3 "" H 3000 3000 30  0000 C CNN
	1    3000 3000
	1    0    0    -1  
$EndComp
$Comp
L Q_NPN_ECB Q1
U 1 1 59FB2275
P 3550 2500
F 0 "Q1" H 3350 2550 50  0000 L CNN
F 1 "2SC1815" H 3750 2850 50  0000 L CNN
F 2 "TO_SOT_Packages_THT:TO-92_Inline_Wide" H 3750 2600 50  0001 C CNN
F 3 "" H 3550 2500 50  0001 C CNN
	1    3550 2500
	1    0    0    -1  
$EndComp
$Comp
L C C2
U 1 1 59FB24FB
P 2900 2500
F 0 "C2" V 2648 2500 50  0000 C CNN
F 1 "10uF" V 2739 2500 50  0000 C CNN
F 2 "Capacitors_SMD:C_1206_HandSoldering" H 2938 2350 50  0001 C CNN
F 3 "" H 2900 2500 50  0001 C CNN
	1    2900 2500
	0    1    1    0   
$EndComp
$Comp
L CP C3
U 1 1 59FB2BCA
P 3200 3000
F 0 "C3" H 3200 3150 50  0000 L CNN
F 1 "10uF" H 3150 3250 50  0000 L CNN
F 2 "Capacitors_SMD:C_1206_HandSoldering" H 3238 2850 50  0001 C CNN
F 3 "" H 3200 3000 50  0001 C CNN
	1    3200 3000
	1    0    0    -1  
$EndComp
$Comp
L C C10
U 1 1 59FB4164
P 5650 2500
F 0 "C10" H 5650 2600 50  0000 L CNN
F 1 "100nF" H 5650 2400 50  0000 L CNN
F 2 "Capacitors_SMD:C_1206_HandSoldering" H 5688 2350 50  0001 C CNN
F 3 "" H 5650 2500 50  0001 C CNN
	1    5650 2500
	1    0    0    -1  
$EndComp
Wire Wire Line
	2550 1900 2550 1800
Wire Wire Line
	2550 1800 4300 1800
Connection ~ 3650 1800
Wire Wire Line
	4600 1800 4700 1800
Wire Wire Line
	5000 2100 4900 2100
Wire Wire Line
	3650 2100 3650 2300
Connection ~ 3650 2200
Wire Wire Line
	3650 2700 3650 2850
Wire Wire Line
	2550 2200 2550 2800
Wire Wire Line
	3050 2500 3350 2500
Connection ~ 3650 2800
Wire Wire Line
	3650 3250 3650 3150
Wire Wire Line
	4250 2350 4250 1800
Connection ~ 4250 1800
Wire Wire Line
	4900 3250 4900 2650
Connection ~ 3650 3250
Wire Wire Line
	4650 3250 4650 2650
Connection ~ 4650 3250
Wire Wire Line
	4250 3250 4250 2650
Connection ~ 4250 3250
Wire Wire Line
	4650 1800 4650 2350
Connection ~ 4650 1800
Wire Wire Line
	4900 2100 4900 2350
Wire Wire Line
	5150 3250 5150 2650
Connection ~ 4900 3250
Wire Wire Line
	5150 2350 5150 2250
Wire Wire Line
	4900 2250 5400 2250
Connection ~ 4900 2250
Connection ~ 5150 3250
Wire Wire Line
	2550 3250 2550 2900
Connection ~ 2550 2500
Wire Wire Line
	2650 3250 2650 3150
Connection ~ 2650 3250
Wire Wire Line
	2550 2800 2650 2800
Wire Wire Line
	2650 2800 2650 2850
Wire Wire Line
	3350 2200 3300 2200
Wire Wire Line
	3300 2200 3300 2700
Connection ~ 3300 2500
Wire Wire Line
	3650 2200 3800 2200
Wire Wire Line
	3800 2200 3800 2850
Wire Wire Line
	3800 2850 3900 2850
Wire Wire Line
	3300 2700 3000 2700
Wire Wire Line
	4200 2850 5800 2850
Wire Wire Line
	2750 2500 2550 2500
Wire Wire Line
	3000 3250 3000 3150
Connection ~ 3000 3250
Wire Wire Line
	3000 2700 3000 2850
Wire Wire Line
	3200 3250 3200 3150
Connection ~ 3200 3250
Wire Wire Line
	3200 2850 3200 2800
Wire Wire Line
	3200 2800 3650 2800
Wire Wire Line
	3450 2850 3450 2800
Connection ~ 3450 2800
Wire Wire Line
	3450 3250 3450 3150
Connection ~ 3450 3250
Connection ~ 2550 3250
Wire Wire Line
	5650 3250 2350 3250
Wire Wire Line
	5300 2100 5800 2100
Wire Wire Line
	5800 1700 5800 2650
$Comp
L C C5
U 1 1 59FB494C
P 4050 2850
F 0 "C5" V 3798 2850 50  0000 C CNN
F 1 "10uF" V 3889 2850 50  0000 C CNN
F 2 "Capacitors_SMD:C_1206_HandSoldering" H 4088 2700 50  0001 C CNN
F 3 "" H 4050 2850 50  0001 C CNN
	1    4050 2850
	0    1    1    0   
$EndComp
Wire Wire Line
	5800 2750 5650 2750
Wire Wire Line
	5650 2650 5650 3400
Connection ~ 5650 2750
$Comp
L CP C11
U 1 1 59FB4DFF
P 5400 2500
F 0 "C11" H 5425 2600 50  0000 L CNN
F 1 "10uF" H 5425 2400 50  0000 L CNN
F 2 "Capacitors_SMD:C_1206_HandSoldering" H 5438 2350 30  0001 C CNN
F 3 "" H 5400 2500 60  0000 C CNN
	1    5400 2500
	1    0    0    -1  
$EndComp
Wire Wire Line
	5400 2250 5400 2350
Connection ~ 5150 2250
Wire Wire Line
	5400 2650 5400 3250
Connection ~ 5400 3250
$Comp
L PWR_FLAG #FLG01
U 1 1 560FC2F4
P 5800 1700
F 0 "#FLG01" H 5800 1795 50  0001 C CNN
F 1 "PWR_FLAG" H 5800 1880 50  0000 C CNN
F 2 "" H 5800 1700 60  0000 C CNN
F 3 "" H 5800 1700 60  0000 C CNN
	1    5800 1700
	1    0    0    -1  
$EndComp
Wire Wire Line
	5100 1800 5800 1800
Connection ~ 5800 2100
Connection ~ 5800 1800
Wire Wire Line
	5650 2350 5650 2250
Wire Wire Line
	5650 2250 5800 2250
Connection ~ 5800 2250
$Comp
L Q_NPN_CBE Q2
U 1 1 59FB598F
P 4900 1900
F 0 "Q2" V 5228 1900 50  0000 C CNN
F 1 "BC514C" V 5137 1900 50  0000 C CNN
F 2 "TO_SOT_Packages_THT:TO-92_Inline_Wide" H 5100 2000 50  0001 C CNN
F 3 "" H 4900 1900 50  0001 C CNN
	1    4900 1900
	0    1    -1   0   
$EndComp
$Comp
L GND #PWR01
U 1 1 59FB5C4E
P 5650 3400
F 0 "#PWR01" H 5650 3150 50  0001 C CNN
F 1 "GND" H 5655 3227 50  0000 C CNN
F 2 "" H 5650 3400 50  0001 C CNN
F 3 "" H 5650 3400 50  0001 C CNN
	1    5650 3400
	1    0    0    -1  
$EndComp
Connection ~ 5650 3250
$Comp
L PWR_FLAG #FLG02
U 1 1 560FCA04
P 2350 3250
F 0 "#FLG02" H 2350 3345 50  0001 C CNN
F 1 "PWR_FLAG" H 2350 3430 50  0000 C CNN
F 2 "" H 2350 3250 60  0000 C CNN
F 3 "" H 2350 3250 60  0000 C CNN
	1    2350 3250
	1    0    0    -1  
$EndComp
$EndSCHEMATC
