EESchema Schematic File Version 3
LIBS:power
LIBS:device
LIBS:linear
LIBS:regul
LIBS:adc-dac
LIBS:memory
LIBS:xilinx
LIBS:microcontrollers
LIBS:dsp
LIBS:microchip
LIBS:analog_switches
LIBS:motorola
LIBS:texas
LIBS:intel
LIBS:audio
LIBS:interface
LIBS:digital-audio
LIBS:philips
LIBS:cypress
LIBS:siliconi
LIBS:opto
LIBS:atmel
LIBS:contrib
LIBS:micboost-cache
EELAYER 26 0
EELAYER END
$Descr A4 11693 8268
encoding utf-8
Sheet 1 1
Title ""
Date ""
Rev ""
Comp ""
Comment1 ""
Comment2 ""
Comment3 ""
Comment4 ""
$EndDescr
$Comp
L BC817-40 Q2
U 1 1 560EE910
P 4900 1900
F 0 "Q2" H 5100 1975 50  0000 L CNN
F 1 "BC817-40" H 5100 1900 50  0000 L CNN
F 2 "Housings_SOT-23_SOT-143_TSOT-6:SOT-23" V 5600 1900 50  0000 L CIN
F 3 "" H 4900 1900 50  0000 L CNN
	1    4900 1900
	0    1    -1   0   
$EndComp
$Comp
L R R3
U 1 1 560EE992
P 3500 2200
F 0 "R3" V 3400 2150 50  0000 C CNN
F 1 "220k" V 3500 2200 50  0000 C CNN
F 2 "Resistors_SMD:R_0603_HandSoldering" V 3430 2200 30  0001 C CNN
F 3 "" H 3500 2200 30  0000 C CNN
	1    3500 2200
	0    1    1    0   
$EndComp
$Comp
L R R4
U 1 1 560EEA15
P 3650 1950
F 0 "R4" H 3750 2000 50  0000 C CNN
F 1 "2.2k" V 3650 1950 50  0000 C CNN
F 2 "Resistors_SMD:R_0603_HandSoldering" V 3580 1950 30  0001 C CNN
F 3 "" H 3650 1950 30  0000 C CNN
	1    3650 1950
	1    0    0    -1  
$EndComp
$Comp
L R R1
U 1 1 560EEA8C
P 2550 2050
F 0 "R1" H 2650 2050 50  0000 C CNN
F 1 "4.7k" V 2550 2050 50  0000 C CNN
F 2 "Resistors_SMD:R_0603_HandSoldering" V 2480 2050 30  0001 C CNN
F 3 "" H 2550 2050 30  0000 C CNN
	1    2550 2050
	1    0    0    -1  
$EndComp
$Comp
L R R5
U 1 1 560EEAFD
P 3650 3000
F 0 "R5" H 3750 3050 50  0000 C CNN
F 1 "51ohm" H 3800 2850 50  0000 C CNN
F 2 "Resistors_SMD:R_0603_HandSoldering" V 3580 3000 30  0001 C CNN
F 3 "" H 3650 3000 30  0000 C CNN
	1    3650 3000
	1    0    0    -1  
$EndComp
$Comp
L R R6
U 1 1 560EED46
P 4450 1800
F 0 "R6" V 4530 1800 50  0000 C CNN
F 1 "150ohm" V 4350 1800 50  0000 C CNN
F 2 "Resistors_SMD:R_0603_HandSoldering" V 4380 1800 30  0001 C CNN
F 3 "" H 4450 1800 30  0000 C CNN
	1    4450 1800
	0    1    1    0   
$EndComp
$Comp
L R R8
U 1 1 560EED9A
P 5250 2100
F 0 "R8" V 5330 2100 50  0000 C CNN
F 1 "1.5k" V 5250 2100 50  0000 C CNN
F 2 "Resistors_SMD:R_0603_HandSoldering" V 5180 2100 30  0001 C CNN
F 3 "" H 5250 2100 30  0000 C CNN
	1    5250 2100
	0    1    1    0   
$EndComp
$Comp
L C C8
U 1 1 560EEEC5
P 4900 2500
F 0 "C8" H 4925 2600 50  0000 L CNN
F 1 "100nF" H 4925 2400 50  0000 L CNN
F 2 "Capacitors_SMD:C_1206_HandSoldering" H 4938 2350 30  0001 C CNN
F 3 "" H 4900 2500 60  0000 C CNN
	1    4900 2500
	1    0    0    -1  
$EndComp
$Comp
L C C7
U 1 1 560EEFB0
P 4650 2500
F 0 "C7" H 4675 2600 50  0000 L CNN
F 1 "100nF" H 4675 2400 50  0000 L CNN
F 2 "Capacitors_SMD:C_1206_HandSoldering" H 4688 2350 30  0001 C CNN
F 3 "" H 4650 2500 60  0000 C CNN
	1    4650 2500
	1    0    0    -1  
$EndComp
$Comp
L CP C3
U 1 1 560EF1F3
P 3100 2500
F 0 "C3" H 3125 2600 50  0000 L CNN
F 1 "10uF" H 2900 2400 50  0000 L CNN
F 2 "Capacitors_Elko_ThroughHole:Elko_vert_11x5mm_RM2.5" H 3138 2350 30  0001 C CNN
F 3 "" H 3100 2500 60  0000 C CNN
	1    3100 2500
	0    1    1    0   
$EndComp
$Comp
L CP C2
U 1 1 560EF34A
P 2700 2500
F 0 "C2" H 2725 2600 50  0000 L CNN
F 1 "10uF" H 2725 2400 50  0000 L CNN
F 2 "Capacitors_Elko_ThroughHole:Elko_vert_11x5mm_RM2.5" H 2738 2350 30  0001 C CNN
F 3 "" H 2700 2500 60  0000 C CNN
	1    2700 2500
	0    -1   -1   0   
$EndComp
$Comp
L CP C4
U 1 1 560EF49B
P 3400 3000
F 0 "C4" H 3425 3100 50  0000 L CNN
F 1 "100uF" H 3400 3250 50  0000 L CNN
F 2 "Capacitors_Elko_ThroughHole:Elko_vert_11x5mm_RM2.5" H 3438 2850 30  0001 C CNN
F 3 "" H 3400 3000 60  0000 C CNN
	1    3400 3000
	1    0    0    -1  
$EndComp
$Comp
L CP C6
U 1 1 560EF520
P 4250 2500
F 0 "C6" H 4275 2600 50  0000 L CNN
F 1 "330uF" H 4275 2400 50  0000 L CNN
F 2 "Capacitors_Elko_ThroughHole:Elko_vert_20x10mm_RM5" H 4288 2350 30  0001 C CNN
F 3 "" H 4250 2500 60  0000 C CNN
	1    4250 2500
	1    0    0    -1  
$EndComp
$Comp
L CP C9
U 1 1 560EF987
P 5150 2500
F 0 "C9" H 5175 2600 50  0000 L CNN
F 1 "22uF" H 5175 2400 50  0000 L CNN
F 2 "Capacitors_Elko_ThroughHole:Elko_vert_11x5mm_RM2.5" H 5188 2350 30  0001 C CNN
F 3 "" H 5150 2500 60  0000 C CNN
	1    5150 2500
	1    0    0    -1  
$EndComp
$Comp
L CP C5
U 1 1 560F0772
P 4050 2850
F 0 "C5" H 4075 2950 50  0000 L CNN
F 1 "22uF" V 4200 2750 50  0000 L CNN
F 2 "Capacitors_Elko_ThroughHole:Elko_vert_11x5mm_RM2.5" H 4088 2700 30  0001 C CNN
F 3 "" H 4050 2850 60  0000 C CNN
	1    4050 2850
	0    -1   -1   0   
$EndComp
$Comp
L CONN_01X03 P2
U 1 1 560F0F57
P 5600 2850
F 0 "P2" H 5600 3050 50  0000 C CNN
F 1 "CONN_01X03" V 5700 2850 50  0000 C CNN
F 2 "Pin_Headers:Pin_Header_Straight_1x03" H 5600 2850 60  0001 C CNN
F 3 "" H 5600 2850 60  0000 C CNN
	1    5600 2850
	1    0    0    -1  
$EndComp
$Comp
L CONN_01X02 P1
U 1 1 560F1464
P 2350 2850
F 0 "P1" H 2350 3000 50  0000 C CNN
F 1 "CONN_01X02" V 2450 2850 50  0000 C CNN
F 2 "Pin_Headers:Pin_Header_Straight_1x02" H 2350 2850 60  0001 C CNN
F 3 "" H 2350 2850 60  0000 C CNN
	1    2350 2850
	-1   0    0    1   
$EndComp
$Comp
L C C1
U 1 1 560F1981
P 2650 3000
F 0 "C1" H 2675 3100 50  0000 L CNN
F 1 "2.2nF" H 2675 2900 50  0000 L CNN
F 2 "Capacitors_SMD:C_1206_HandSoldering" H 2688 2850 30  0001 C CNN
F 3 "" H 2650 3000 60  0000 C CNN
	1    2650 3000
	1    0    0    -1  
$EndComp
Wire Wire Line
	2550 1900 2550 1800
Wire Wire Line
	2550 1800 4300 1800
Connection ~ 3650 1800
Wire Wire Line
	4600 1800 4700 1800
Wire Wire Line
	5100 1800 5400 1800
Wire Wire Line
	5400 1800 5400 2750
Wire Wire Line
	5100 2100 4900 2100
Wire Wire Line
	3650 2100 3650 2300
Connection ~ 3650 2200
Wire Wire Line
	3650 2700 3650 2850
Wire Wire Line
	2550 2200 2550 2800
Wire Wire Line
	2850 2500 2950 2500
Wire Wire Line
	3250 2500 3350 2500
Connection ~ 3650 2800
Wire Wire Line
	3400 3250 3400 3150
Wire Wire Line
	2550 3250 6400 3250
Wire Wire Line
	3650 3250 3650 3150
Wire Wire Line
	4250 2350 4250 1800
Connection ~ 4250 1800
Wire Wire Line
	4900 3250 4900 2650
Connection ~ 3650 3250
Wire Wire Line
	4650 2650 4650 3250
Connection ~ 4650 3250
Wire Wire Line
	4250 2650 4250 3250
Connection ~ 4250 3250
Wire Wire Line
	4650 1800 4650 2350
Connection ~ 4650 1800
Wire Wire Line
	4900 2100 4900 2350
Connection ~ 3400 3250
Wire Wire Line
	5150 3250 5150 2650
Connection ~ 4900 3250
Wire Wire Line
	5150 2350 5150 2250
Wire Wire Line
	5150 2250 4900 2250
Connection ~ 4900 2250
Wire Wire Line
	5400 3250 5400 2950
Connection ~ 5150 3250
Connection ~ 5400 2100
Wire Wire Line
	2550 3250 2550 2900
Connection ~ 2550 2500
Wire Wire Line
	2650 3150 2650 3250
Connection ~ 2650 3250
Wire Wire Line
	2550 2800 2650 2800
Wire Wire Line
	2650 2800 2650 2850
Wire Wire Line
	3400 2850 3400 2800
Wire Wire Line
	3400 2800 3650 2800
Wire Wire Line
	3350 2200 3300 2200
Wire Wire Line
	3300 2200 3300 2700
Connection ~ 3300 2500
Wire Wire Line
	3650 2200 3800 2200
Wire Wire Line
	3800 2200 3800 2850
Wire Wire Line
	3800 2850 3900 2850
$Comp
L R R2
U 1 1 560F96FD
P 3150 3000
F 0 "R2" V 3230 3000 50  0000 C CNN
F 1 "100k" V 3150 3000 50  0000 C CNN
F 2 "Resistors_SMD:R_0603_HandSoldering" V 3080 3000 30  0001 C CNN
F 3 "" H 3150 3000 30  0000 C CNN
	1    3150 3000
	1    0    0    -1  
$EndComp
Wire Wire Line
	3150 3150 3150 3250
Connection ~ 3150 3250
Wire Wire Line
	3150 2850 3150 2700
Wire Wire Line
	3150 2700 3300 2700
$Comp
L USB_A P3
U 1 1 560FA0B7
P 6150 2900
F 0 "P3" H 6350 2700 50  0000 C CNN
F 1 "USB_A" H 6100 3100 50  0000 C CNN
F 2 "Connect:USB_A" V 6100 2800 60  0001 C CNN
F 3 "" V 6100 2800 60  0000 C CNN
	1    6150 2900
	0    1    1    0   
$EndComp
Wire Wire Line
	5850 3000 5850 3250
Connection ~ 5400 3250
Wire Wire Line
	5850 2700 5850 2550
Wire Wire Line
	5850 2550 5400 2550
Connection ~ 5400 2550
Connection ~ 5850 3250
$Comp
L R R7
U 1 1 560FB35A
P 4450 3000
F 0 "R7" V 4530 3000 50  0000 C CNN
F 1 "100k" V 4450 3000 50  0000 C CNN
F 2 "Resistors_SMD:R_0603_HandSoldering" V 4380 3000 30  0001 C CNN
F 3 "" H 4450 3000 30  0000 C CNN
	1    4450 3000
	1    0    0    -1  
$EndComp
Wire Wire Line
	4200 2850 5400 2850
Connection ~ 4450 2850
Wire Wire Line
	4450 3150 4450 3250
Connection ~ 4450 3250
NoConn ~ 5850 2800
NoConn ~ 5850 2900
$Comp
L PWR_FLAG #FLG01
U 1 1 560FC2F4
P 5850 2550
F 0 "#FLG01" H 5850 2645 50  0001 C CNN
F 1 "PWR_FLAG" H 5850 2730 50  0000 C CNN
F 2 "" H 5850 2550 60  0000 C CNN
F 3 "" H 5850 2550 60  0000 C CNN
	1    5850 2550
	1    0    0    -1  
$EndComp
Wire Wire Line
	6250 3250 6250 3200
$Comp
L PWR_FLAG #FLG02
U 1 1 560FCA04
P 6400 2550
F 0 "#FLG02" H 6400 2645 50  0001 C CNN
F 1 "PWR_FLAG" H 6400 2730 50  0000 C CNN
F 2 "" H 6400 2550 60  0000 C CNN
F 3 "" H 6400 2550 60  0000 C CNN
	1    6400 2550
	1    0    0    -1  
$EndComp
Wire Wire Line
	6400 3250 6400 2550
Connection ~ 6250 3250
$Comp
L BC817-40 Q1
U 1 1 560EE86E
P 3550 2500
F 0 "Q1" H 3750 2575 50  0000 L CNN
F 1 "BC817-40" H 3750 2500 50  0000 L CNN
F 2 "Housings_SOT-23_SOT-143_TSOT-6:SOT-23" H 2500 3300 50  0000 L CIN
F 3 "" H 3550 2500 50  0000 L CNN
	1    3550 2500
	1    0    0    -1  
$EndComp
$EndSCHEMATC
